(kicad_sch (version 20211123) (generator eeschema)

  (uuid 392bfdb6-042a-4e72-b52a-03be69b20937)

  (paper "A4")

  (title_block
    (title "RTC Module")
    (company "University of Cape Town")
    (comment 3 "Author: Dylan Hellig")
  )

  (lib_symbols
    (symbol "Device:Battery" (pin_numbers hide) (pin_names (offset 0) hide) (in_bom yes) (on_board yes)
      (property "Reference" "BT" (id 0) (at 2.54 2.54 0)
        (effects (font (size 1.27 1.27)) (justify left))
      )
      (property "Value" "Battery" (id 1) (at 2.54 0 0)
        (effects (font (size 1.27 1.27)) (justify left))
      )
      (property "Footprint" "" (id 2) (at 0 1.524 90)
        (effects (font (size 1.27 1.27)) hide)
      )
      (property "Datasheet" "~" (id 3) (at 0 1.524 90)
        (effects (font (size 1.27 1.27)) hide)
      )
      (property "ki_keywords" "batt voltage-source cell" (id 4) (at 0 0 0)
        (effects (font (size 1.27 1.27)) hide)
      )
      (property "ki_description" "Multiple-cell battery" (id 5) (at 0 0 0)
        (effects (font (size 1.27 1.27)) hide)
      )
      (symbol "Battery_0_1"
        (rectangle (start -2.032 -1.397) (end 2.032 -1.651)
          (stroke (width 0) (type default) (color 0 0 0 0))
          (fill (type outline))
        )
        (rectangle (start -2.032 1.778) (end 2.032 1.524)
          (stroke (width 0) (type default) (color 0 0 0 0))
          (fill (type outline))
        )
        (rectangle (start -1.3208 -1.9812) (end 1.27 -2.4892)
          (stroke (width 0) (type default) (color 0 0 0 0))
          (fill (type outline))
        )
        (rectangle (start -1.3208 1.1938) (end 1.27 0.6858)
          (stroke (width 0) (type default) (color 0 0 0 0))
          (fill (type outline))
        )
        (polyline
          (pts
            (xy 0 -1.524)
            (xy 0 -1.27)
          )
          (stroke (width 0) (type default) (color 0 0 0 0))
          (fill (type none))
        )
        (polyline
          (pts
            (xy 0 -1.016)
            (xy 0 -0.762)
          )
          (stroke (width 0) (type default) (color 0 0 0 0))
          (fill (type none))
        )
        (polyline
          (pts
            (xy 0 -0.508)
            (xy 0 -0.254)
          )
          (stroke (width 0) (type default) (color 0 0 0 0))
          (fill (type none))
        )
        (polyline
          (pts
            (xy 0 0)
            (xy 0 0.254)
          )
          (stroke (width 0) (type default) (color 0 0 0 0))
          (fill (type none))
        )
        (polyline
          (pts
            (xy 0 0.508)
            (xy 0 0.762)
          )
          (stroke (width 0) (type default) (color 0 0 0 0))
          (fill (type none))
        )
        (polyline
          (pts
            (xy 0 1.778)
            (xy 0 2.54)
          )
          (stroke (width 0) (type default) (color 0 0 0 0))
          (fill (type none))
        )
        (polyline
          (pts
            (xy 0.254 2.667)
            (xy 1.27 2.667)
          )
          (stroke (width 0.254) (type default) (color 0 0 0 0))
          (fill (type none))
        )
        (polyline
          (pts
            (xy 0.762 3.175)
            (xy 0.762 2.159)
          )
          (stroke (width 0.254) (type default) (color 0 0 0 0))
          (fill (type none))
        )
      )
      (symbol "Battery_1_1"
        (pin passive line (at 0 5.08 270) (length 2.54)
          (name "+" (effects (font (size 1.27 1.27))))
          (number "1" (effects (font (size 1.27 1.27))))
        )
        (pin passive line (at 0 -5.08 90) (length 2.54)
          (name "-" (effects (font (size 1.27 1.27))))
          (number "2" (effects (font (size 1.27 1.27))))
        )
      )
    )
    (symbol "Device:Crystal" (pin_numbers hide) (pin_names (offset 1.016) hide) (in_bom yes) (on_board yes)
      (property "Reference" "Y" (id 0) (at 0 3.81 0)
        (effects (font (size 1.27 1.27)))
      )
      (property "Value" "Crystal" (id 1) (at 0 -3.81 0)
        (effects (font (size 1.27 1.27)))
      )
      (property "Footprint" "" (id 2) (at 0 0 0)
        (effects (font (size 1.27 1.27)) hide)
      )
      (property "Datasheet" "~" (id 3) (at 0 0 0)
        (effects (font (size 1.27 1.27)) hide)
      )
      (property "ki_keywords" "quartz ceramic resonator oscillator" (id 4) (at 0 0 0)
        (effects (font (size 1.27 1.27)) hide)
      )
      (property "ki_description" "Two pin crystal" (id 5) (at 0 0 0)
        (effects (font (size 1.27 1.27)) hide)
      )
      (property "ki_fp_filters" "Crystal*" (id 6) (at 0 0 0)
        (effects (font (size 1.27 1.27)) hide)
      )
      (symbol "Crystal_0_1"
        (rectangle (start -1.143 2.54) (end 1.143 -2.54)
          (stroke (width 0.3048) (type default) (color 0 0 0 0))
          (fill (type none))
        )
        (polyline
          (pts
            (xy -2.54 0)
            (xy -1.905 0)
          )
          (stroke (width 0) (type default) (color 0 0 0 0))
          (fill (type none))
        )
        (polyline
          (pts
            (xy -1.905 -1.27)
            (xy -1.905 1.27)
          )
          (stroke (width 0.508) (type default) (color 0 0 0 0))
          (fill (type none))
        )
        (polyline
          (pts
            (xy 1.905 -1.27)
            (xy 1.905 1.27)
          )
          (stroke (width 0.508) (type default) (color 0 0 0 0))
          (fill (type none))
        )
        (polyline
          (pts
            (xy 2.54 0)
            (xy 1.905 0)
          )
          (stroke (width 0) (type default) (color 0 0 0 0))
          (fill (type none))
        )
      )
      (symbol "Crystal_1_1"
        (pin passive line (at -3.81 0 0) (length 1.27)
          (name "1" (effects (font (size 1.27 1.27))))
          (number "1" (effects (font (size 1.27 1.27))))
        )
        (pin passive line (at 3.81 0 180) (length 1.27)
          (name "2" (effects (font (size 1.27 1.27))))
          (number "2" (effects (font (size 1.27 1.27))))
        )
      )
    )
    (symbol "Device:R" (pin_numbers hide) (pin_names (offset 0)) (in_bom yes) (on_board yes)
      (property "Reference" "R" (id 0) (at 2.032 0 90)
        (effects (font (size 1.27 1.27)))
      )
      (property "Value" "R" (id 1) (at 0 0 90)
        (effects (font (size 1.27 1.27)))
      )
      (property "Footprint" "" (id 2) (at -1.778 0 90)
        (effects (font (size 1.27 1.27)) hide)
      )
      (property "Datasheet" "~" (id 3) (at 0 0 0)
        (effects (font (size 1.27 1.27)) hide)
      )
      (property "ki_keywords" "R res resistor" (id 4) (at 0 0 0)
        (effects (font (size 1.27 1.27)) hide)
      )
      (property "ki_description" "Resistor" (id 5) (at 0 0 0)
        (effects (font (size 1.27 1.27)) hide)
      )
      (property "ki_fp_filters" "R_*" (id 6) (at 0 0 0)
        (effects (font (size 1.27 1.27)) hide)
      )
      (symbol "R_0_1"
        (rectangle (start -1.016 -2.54) (end 1.016 2.54)
          (stroke (width 0.254) (type default) (color 0 0 0 0))
          (fill (type none))
        )
      )
      (symbol "R_1_1"
        (pin passive line (at 0 3.81 270) (length 1.27)
          (name "~" (effects (font (size 1.27 1.27))))
          (number "1" (effects (font (size 1.27 1.27))))
        )
        (pin passive line (at 0 -3.81 90) (length 1.27)
          (name "~" (effects (font (size 1.27 1.27))))
          (number "2" (effects (font (size 1.27 1.27))))
        )
      )
    )
    (symbol "Timer_RTC:DS1307N+" (in_bom yes) (on_board yes)
      (property "Reference" "U" (id 0) (at -8.89 8.89 0)
        (effects (font (size 1.27 1.27)))
      )
      (property "Value" "DS1307N+" (id 1) (at 1.27 8.89 0)
        (effects (font (size 1.27 1.27)) (justify left))
      )
      (property "Footprint" "Package_DIP:DIP-8_W7.62mm" (id 2) (at 0 -12.7 0)
        (effects (font (size 1.27 1.27)) hide)
      )
      (property "Datasheet" "https://datasheets.maximintegrated.com/en/ds/DS1307.pdf" (id 3) (at 0 -5.08 0)
        (effects (font (size 1.27 1.27)) hide)
      )
      (property "ki_keywords" "RTC, Trickle-Charge Timekeeping Chip" (id 4) (at 0 0 0)
        (effects (font (size 1.27 1.27)) hide)
      )
      (property "ki_description" "64 x 8, Serial, I2C Real-time clock, 4.5V to 5.5V VCC, -40°C to +85°C, DIP-8" (id 5) (at 0 0 0)
        (effects (font (size 1.27 1.27)) hide)
      )
      (property "ki_fp_filters" "DIP*W7.62mm*" (id 6) (at 0 0 0)
        (effects (font (size 1.27 1.27)) hide)
      )
      (symbol "DS1307N+_0_1"
        (rectangle (start -10.16 7.62) (end 10.16 -7.62)
          (stroke (width 0.254) (type default) (color 0 0 0 0))
          (fill (type background))
        )
      )
      (symbol "DS1307N+_1_1"
        (pin input line (at -12.7 -2.54 0) (length 2.54)
          (name "X1" (effects (font (size 1.27 1.27))))
          (number "1" (effects (font (size 1.27 1.27))))
        )
        (pin input line (at -12.7 -5.08 0) (length 2.54)
          (name "X2" (effects (font (size 1.27 1.27))))
          (number "2" (effects (font (size 1.27 1.27))))
        )
        (pin power_in line (at 0 10.16 270) (length 2.54)
          (name "VBAT" (effects (font (size 1.27 1.27))))
          (number "3" (effects (font (size 1.27 1.27))))
        )
        (pin power_in line (at 0 -10.16 90) (length 2.54)
          (name "GND" (effects (font (size 1.27 1.27))))
          (number "4" (effects (font (size 1.27 1.27))))
        )
        (pin bidirectional line (at -12.7 2.54 0) (length 2.54)
          (name "SDA" (effects (font (size 1.27 1.27))))
          (number "5" (effects (font (size 1.27 1.27))))
        )
        (pin input line (at -12.7 5.08 0) (length 2.54)
          (name "SCL" (effects (font (size 1.27 1.27))))
          (number "6" (effects (font (size 1.27 1.27))))
        )
        (pin open_collector line (at 12.7 0 180) (length 2.54)
          (name "SQW/OUT" (effects (font (size 1.27 1.27))))
          (number "7" (effects (font (size 1.27 1.27))))
        )
        (pin power_in line (at -2.54 10.16 270) (length 2.54)
          (name "VCC" (effects (font (size 1.27 1.27))))
          (number "8" (effects (font (size 1.27 1.27))))
        )
      )
    )
    (symbol "power:PWR_FLAG" (power) (pin_numbers hide) (pin_names (offset 0) hide) (in_bom yes) (on_board yes)
      (property "Reference" "#FLG" (id 0) (at 0 1.905 0)
        (effects (font (size 1.27 1.27)) hide)
      )
      (property "Value" "PWR_FLAG" (id 1) (at 0 3.81 0)
        (effects (font (size 1.27 1.27)))
      )
      (property "Footprint" "" (id 2) (at 0 0 0)
        (effects (font (size 1.27 1.27)) hide)
      )
      (property "Datasheet" "~" (id 3) (at 0 0 0)
        (effects (font (size 1.27 1.27)) hide)
      )
      (property "ki_keywords" "power-flag" (id 4) (at 0 0 0)
        (effects (font (size 1.27 1.27)) hide)
      )
      (property "ki_description" "Special symbol for telling ERC where power comes from" (id 5) (at 0 0 0)
        (effects (font (size 1.27 1.27)) hide)
      )
      (symbol "PWR_FLAG_0_0"
        (pin power_out line (at 0 0 90) (length 0)
          (name "pwr" (effects (font (size 1.27 1.27))))
          (number "1" (effects (font (size 1.27 1.27))))
        )
      )
      (symbol "PWR_FLAG_0_1"
        (polyline
          (pts
            (xy 0 0)
            (xy 0 1.27)
            (xy -1.016 1.905)
            (xy 0 2.54)
            (xy 1.016 1.905)
            (xy 0 1.27)
          )
          (stroke (width 0) (type default) (color 0 0 0 0))
          (fill (type none))
        )
      )
    )
  )

  (junction (at 203.2 125.73) (diameter 0) (color 0 0 0 0)
    (uuid 272210e2-e9f7-44ec-8ec3-b33773c8ad0b)
  )
  (junction (at 250.19 118.11) (diameter 0) (color 0 0 0 0)
    (uuid 8bd96d0b-695c-4772-9d79-67f50dba0f6b)
  )
  (junction (at 209.55 123.19) (diameter 0) (color 0 0 0 0)
    (uuid cf43e328-49e7-4491-94dc-be3c481cecac)
  )
  (junction (at 222.25 110.49) (diameter 0) (color 0 0 0 0)
    (uuid ec93ba6d-354b-44d2-b521-e661bc6a627f)
  )
  (junction (at 209.55 110.49) (diameter 0) (color 0 0 0 0)
    (uuid ef686dff-2e0e-4425-be47-6a95c605dfd1)
  )
  (junction (at 222.25 116.84) (diameter 0) (color 0 0 0 0)
    (uuid f8052cd4-ebc4-4eb1-b2c2-fd93c0c9bafb)
  )
  (junction (at 242.57 138.43) (diameter 0) (color 0 0 0 0)
    (uuid fd31f862-d8f5-4294-8be8-369ed4a46b59)
  )

  (no_connect (at 237.49 128.27) (uuid 3ff670cd-ffb3-439b-9af1-d73390668826))

  (wire (pts (xy 185.42 123.19) (xy 209.55 123.19))
    (stroke (width 0) (type default) (color 0 0 0 0))
    (uuid 11db48b0-9c95-4fdb-a34a-4eb0778244e8)
  )
  (wire (pts (xy 203.2 110.49) (xy 209.55 110.49))
    (stroke (width 0) (type default) (color 0 0 0 0))
    (uuid 1b5216b1-8d61-4037-a3f9-31fe6a31e37c)
  )
  (wire (pts (xy 222.25 110.49) (xy 222.25 116.84))
    (stroke (width 0) (type default) (color 0 0 0 0))
    (uuid 3b328700-d15a-46d6-8837-5d910db74aef)
  )
  (polyline (pts (xy 226.06 99.06) (xy 189.23 99.06))
    (stroke (width 0) (type default) (color 0 0 0 0))
    (uuid 3c20d4d1-7804-4686-b0f6-e35a8bfe6b0b)
  )

  (wire (pts (xy 224.79 118.11) (xy 250.19 118.11))
    (stroke (width 0) (type default) (color 0 0 0 0))
    (uuid 48244548-8c63-4d84-8a5f-b0e1128a5e47)
  )
  (wire (pts (xy 203.2 135.89) (xy 212.09 135.89))
    (stroke (width 0) (type default) (color 0 0 0 0))
    (uuid 5c54359f-2302-4953-a32d-37a60c0ba6ef)
  )
  (wire (pts (xy 203.2 125.73) (xy 203.2 118.11))
    (stroke (width 0) (type default) (color 0 0 0 0))
    (uuid 5c795cfc-b535-4d4c-9a0b-2e1d12eea1cf)
  )
  (wire (pts (xy 212.09 125.73) (xy 203.2 125.73))
    (stroke (width 0) (type default) (color 0 0 0 0))
    (uuid 5ebb84fb-9e12-4bc6-8948-8a6e8b9bfb67)
  )
  (polyline (pts (xy 247.65 123.19) (xy 247.65 130.81))
    (stroke (width 0) (type default) (color 0 0 0 0))
    (uuid 69fec7c6-54a6-4f8d-a7c6-28e2b246f546)
  )
  (polyline (pts (xy 189.23 99.06) (xy 189.23 102.87))
    (stroke (width 0) (type default) (color 0 0 0 0))
    (uuid 6c59abd9-7224-48e8-94f6-32c110a698d8)
  )

  (wire (pts (xy 212.09 128.27) (xy 212.09 130.81))
    (stroke (width 0) (type default) (color 0 0 0 0))
    (uuid 6d2e7feb-e772-4532-8241-15b81509a259)
  )
  (wire (pts (xy 212.09 123.19) (xy 209.55 123.19))
    (stroke (width 0) (type default) (color 0 0 0 0))
    (uuid 78a174fc-6ebb-446b-b0e2-21251a72b4e7)
  )
  (polyline (pts (xy 189.23 116.84) (xy 226.06 116.84))
    (stroke (width 0) (type default) (color 0 0 0 0))
    (uuid 7a90524f-12e7-435e-aee2-85369884eec2)
  )
  (polyline (pts (xy 194.31 127) (xy 212.09 127))
    (stroke (width 0) (type default) (color 0 0 0 0))
    (uuid 7e46f7f8-8cfc-447c-ab53-e7de016365ee)
  )

  (wire (pts (xy 224.79 138.43) (xy 242.57 138.43))
    (stroke (width 0) (type default) (color 0 0 0 0))
    (uuid 827550e8-fc10-40a7-9d97-1aeb0912635e)
  )
  (wire (pts (xy 209.55 118.11) (xy 209.55 123.19))
    (stroke (width 0) (type default) (color 0 0 0 0))
    (uuid 87075260-6f62-4255-aaca-853267b9f6d8)
  )
  (polyline (pts (xy 189.23 102.87) (xy 189.23 116.84))
    (stroke (width 0) (type default) (color 0 0 0 0))
    (uuid 8cbad7ed-7a78-435a-b81c-0b5ecb4407cf)
  )
  (polyline (pts (xy 191.77 127) (xy 194.31 127))
    (stroke (width 0) (type default) (color 0 0 0 0))
    (uuid 942b50fc-dadc-4c0e-a976-a26dce1bd4b1)
  )
  (polyline (pts (xy 191.77 153.67) (xy 191.77 127))
    (stroke (width 0) (type default) (color 0 0 0 0))
    (uuid 9901a7c9-4e54-4b40-a9ea-1206142f7549)
  )

  (wire (pts (xy 212.09 133.35) (xy 212.09 135.89))
    (stroke (width 0) (type default) (color 0 0 0 0))
    (uuid a17d04e5-b8e8-413d-b450-08d9ca226b02)
  )
  (wire (pts (xy 185.42 125.73) (xy 203.2 125.73))
    (stroke (width 0) (type default) (color 0 0 0 0))
    (uuid a826e2f2-f6e6-49da-b1cd-3691f0a95851)
  )
  (polyline (pts (xy 152.4 119.38) (xy 190.5 119.38))
    (stroke (width 0) (type default) (color 0 0 0 0))
    (uuid a8d64fcc-84cb-4645-a06d-f5d6c0614188)
  )
  (polyline (pts (xy 280.67 130.81) (xy 247.65 130.81))
    (stroke (width 0) (type default) (color 0 0 0 0))
    (uuid ae882905-7286-490e-93e4-20bbf7d65c35)
  )
  (polyline (pts (xy 212.09 153.67) (xy 191.77 153.67))
    (stroke (width 0) (type default) (color 0 0 0 0))
    (uuid b45cdfac-bd96-4780-b171-b821240a7d82)
  )
  (polyline (pts (xy 212.09 127) (xy 212.09 153.67))
    (stroke (width 0) (type default) (color 0 0 0 0))
    (uuid bda15293-4a0f-4486-8469-66533d74fd50)
  )
  (polyline (pts (xy 190.5 119.38) (xy 190.5 130.81))
    (stroke (width 0) (type default) (color 0 0 0 0))
    (uuid c3659245-3451-4e7a-8ea4-0aa01b15668a)
  )
  (polyline (pts (xy 190.5 130.81) (xy 152.4 130.81))
    (stroke (width 0) (type default) (color 0 0 0 0))
    (uuid c6641a11-e7a7-40eb-9074-1c8c8e46e791)
  )

  (wire (pts (xy 250.19 132.08) (xy 250.19 138.43))
    (stroke (width 0) (type default) (color 0 0 0 0))
    (uuid c67c2220-e5c8-4f71-90da-04fdcb5135ec)
  )
  (wire (pts (xy 242.57 138.43) (xy 250.19 138.43))
    (stroke (width 0) (type default) (color 0 0 0 0))
    (uuid ccfee726-9431-4296-a038-27382eae58a1)
  )
  (polyline (pts (xy 152.4 119.38) (xy 152.4 130.81))
    (stroke (width 0) (type default) (color 0 0 0 0))
    (uuid ce64bdaa-61e4-4f7c-93e4-832ff1eae6b7)
  )

  (wire (pts (xy 222.25 116.84) (xy 222.25 118.11))
    (stroke (width 0) (type default) (color 0 0 0 0))
    (uuid d877d827-7c2f-44c5-bc7f-fde1c942a5a3)
  )
  (wire (pts (xy 222.25 109.22) (xy 222.25 110.49))
    (stroke (width 0) (type default) (color 0 0 0 0))
    (uuid db17cb7f-93ed-45f0-8454-6deb6d28ecfd)
  )
  (polyline (pts (xy 226.06 116.84) (xy 226.06 99.06))
    (stroke (width 0) (type default) (color 0 0 0 0))
    (uuid dba911ca-e714-4ac9-a2b4-fd5df3c1b611)
  )
  (polyline (pts (xy 247.65 123.19) (xy 280.67 123.19))
    (stroke (width 0) (type default) (color 0 0 0 0))
    (uuid e60aef61-846c-4677-8343-c4753a10b52b)
  )

  (wire (pts (xy 250.19 118.11) (xy 250.19 121.92))
    (stroke (width 0) (type default) (color 0 0 0 0))
    (uuid eb956fae-6d1c-4f6f-a5fe-1a150df8e290)
  )
  (polyline (pts (xy 280.67 123.19) (xy 280.67 130.81))
    (stroke (width 0) (type default) (color 0 0 0 0))
    (uuid f391caaa-d0f7-42c5-a111-1e9f6c391d7e)
  )

  (wire (pts (xy 203.2 128.27) (xy 212.09 128.27))
    (stroke (width 0) (type default) (color 0 0 0 0))
    (uuid f631b1ae-a112-42d0-96c8-6dc3ace5a6dd)
  )
  (wire (pts (xy 209.55 110.49) (xy 222.25 110.49))
    (stroke (width 0) (type default) (color 0 0 0 0))
    (uuid fb10f32f-d8d7-41c9-b6b2-969eba473643)
  )

  (text "Time data is read/written from \nthe chip by connecting the \nSTM32 Discovery board over\nI2C"
    (at 153.67 129.54 0)
    (effects (font (size 1.27 1.27)) (justify left bottom))
    (uuid 11f2a396-2879-423c-8f44-58784e555193)
  )
  (text "Pullup resistors connected to\nSDA and SCL pins to allow \ntransistors inside the chip\nto conduct from drain to source"
    (at 189.23 107.95 0)
    (effects (font (size 1.27 1.27)) (justify left bottom))
    (uuid 5171f4d8-6a06-4cba-bbdb-07ab14e53fe4)
  )
  (text "Digital Sensor: RTC Time Module" (at 189.23 163.83 0)
    (effects (font (size 2.5 2.5)) (justify left bottom))
    (uuid 6520a531-76e6-425d-8997-a1a2279f9dc8)
  )
  (text "3V coin battery used\nto keep time when\nsystem is powered off"
    (at 257.81 129.54 0)
    (effects (font (size 1.27 1.27)) (justify left bottom))
    (uuid 6d31b7e5-f345-450d-afad-8aa76cfe85ec)
  )
  (text "The DS1307 chip is able to count \nseconds, minutes, hours, months\nand days."
    (at 232.41 113.03 0)
    (effects (font (size 1.3 1.3)) (justify left bottom))
    (uuid 79be7790-081d-4e56-8c27-9d8a3de06c99)
  )
  (text "The chip utilizes a \n32.786 kHz\ncrystal oscillator \nto keep \naccurate time."
    (at 193.04 152.4 0)
    (effects (font (size 1.27 1.27)) (justify left bottom))
    (uuid df21d0f0-d4a2-48dd-a25f-558730a06d9c)
  )

  (global_label "V3V" (shape input) (at 222.25 109.22 0) (fields_autoplaced)
    (effects (font (size 1.27 1.27)) (justify left))
    (uuid fd96f853-b86f-4839-b405-9056fd204602)
    (property "Intersheet References" "${INTERSHEET_REFS}" (id 0) (at 228.0498 109.1406 0)
      (effects (font (size 1.27 1.27)) (justify left) hide)
    )
  )

  (hierarchical_label "SDA" (shape input) (at 185.42 125.73 180)
    (effects (font (size 1.27 1.27)) (justify right))
    (uuid 3bc24d10-b3eb-4abe-836d-a8521ccc4341)
  )
  (hierarchical_label "SCL" (shape input) (at 185.42 123.19 180)
    (effects (font (size 1.27 1.27)) (justify right))
    (uuid 539dec9e-2c45-4201-ab13-cbbbab8fc31b)
  )

  (symbol (lib_id "Device:Battery") (at 250.19 127 0) (unit 1)
    (in_bom yes) (on_board yes) (fields_autoplaced)
    (uuid 010c2943-d622-4139-9904-f6044ff0dcaa)
    (property "Reference" "battery1" (id 0) (at 254 125.3489 0)
      (effects (font (size 1.27 1.27)) (justify left))
    )
    (property "Value" "3V" (id 1) (at 254 127.8889 0)
      (effects (font (size 1.27 1.27)) (justify left))
    )
    (property "Footprint" "Crystal:Crystal_SMD_SeikoEpson_MC406-4Pin_9.6x4.1mm_HandSoldering" (id 2) (at 250.19 125.476 90)
      (effects (font (size 1.27 1.27)) hide)
    )
    (property "Datasheet" "~" (id 3) (at 250.19 125.476 90)
      (effects (font (size 1.27 1.27)) hide)
    )
    (pin "1" (uuid cc369d1a-4698-4b79-8dba-808bbc61dfed))
    (pin "2" (uuid df707c7f-544e-4d17-8267-63a64af0dcdb))
  )

  (symbol (lib_id "power:PWR_FLAG") (at 222.25 116.84 0) (unit 1)
    (in_bom yes) (on_board yes) (fields_autoplaced)
    (uuid 1c533702-5c42-43b2-ba32-ef6bfb90dee2)
    (property "Reference" "#FLG07" (id 0) (at 222.25 114.935 0)
      (effects (font (size 1.27 1.27)) hide)
    )
    (property "Value" "PWR_FLAG" (id 1) (at 222.25 111.76 0))
    (property "Footprint" "" (id 2) (at 222.25 116.84 0)
      (effects (font (size 1.27 1.27)) hide)
    )
    (property "Datasheet" "~" (id 3) (at 222.25 116.84 0)
      (effects (font (size 1.27 1.27)) hide)
    )
    (pin "1" (uuid de5f33e8-c731-47af-932a-e731d1669f68))
  )

  (symbol (lib_id "power:PWR_FLAG") (at 242.57 138.43 0) (unit 1)
    (in_bom yes) (on_board yes) (fields_autoplaced)
    (uuid 2cacd947-9852-4921-9d0b-138879c2612f)
    (property "Reference" "#FLG08" (id 0) (at 242.57 136.525 0)
      (effects (font (size 1.27 1.27)) hide)
    )
    (property "Value" "PWR_FLAG" (id 1) (at 242.57 133.35 0))
    (property "Footprint" "" (id 2) (at 242.57 138.43 0)
      (effects (font (size 1.27 1.27)) hide)
    )
    (property "Datasheet" "~" (id 3) (at 242.57 138.43 0)
      (effects (font (size 1.27 1.27)) hide)
    )
    (pin "1" (uuid 107eba14-98d9-4afc-9bd1-f9918704065d))
  )

  (symbol (lib_id "Timer_RTC:DS1307N+") (at 224.79 128.27 0) (unit 1)
    (in_bom yes) (on_board yes)
    (uuid 3ac65bf7-6c71-40f5-b2e1-255a90f3bc0e)
    (property "Reference" "DS1307N+1" (id 0) (at 240.03 124.46 0))
    (property "Value" "DS1307N+" (id 1) (at 240.03 124.46 0)
      (effects (font (size 1.27 1.27)) hide)
    )
    (property "Footprint" "Package_DIP:DIP-8_W7.62mm" (id 2) (at 224.79 140.97 0)
      (effects (font (size 1.27 1.27)) hide)
    )
    (property "Datasheet" "https://datasheets.maximintegrated.com/en/ds/DS1307.pdf" (id 3) (at 224.79 133.35 0)
      (effects (font (size 1.27 1.27)) hide)
    )
    (pin "1" (uuid 4ce52193-b229-4dc6-af29-b9a2de9bb12b))
    (pin "2" (uuid f5e93f2c-e241-4a54-8509-4644603f63cb))
    (pin "3" (uuid 8937b4a2-36bf-4956-96c2-b3db99796479))
    (pin "4" (uuid 4e433950-4a8b-40fc-92d0-4fa30995b357))
    (pin "5" (uuid e37317b4-cd44-49fc-9d51-59e5a0764031))
    (pin "6" (uuid 8cc7c5b4-61cf-47c0-9ae7-c16003047aff))
    (pin "7" (uuid 98ff3364-53db-4c0c-b54e-46cdecda19f1))
    (pin "8" (uuid a4e637c7-9cd0-4f69-ad67-8ef7100d3c93))
  )

  (symbol (lib_id "power:PWR_FLAG") (at 250.19 118.11 0) (unit 1)
    (in_bom yes) (on_board yes) (fields_autoplaced)
    (uuid 45f4acdc-a6bf-4899-bccd-db55fbec82c0)
    (property "Reference" "#FLG09" (id 0) (at 250.19 116.205 0)
      (effects (font (size 1.27 1.27)) hide)
    )
    (property "Value" "PWR_FLAG" (id 1) (at 250.19 113.03 0))
    (property "Footprint" "" (id 2) (at 250.19 118.11 0)
      (effects (font (size 1.27 1.27)) hide)
    )
    (property "Datasheet" "~" (id 3) (at 250.19 118.11 0)
      (effects (font (size 1.27 1.27)) hide)
    )
    (pin "1" (uuid 3f7acc15-9dc7-4b9c-a899-47c810b3d22a))
  )

  (symbol (lib_id "Device:Crystal") (at 203.2 132.08 90) (unit 1)
    (in_bom yes) (on_board yes)
    (uuid 74599e18-0957-46d2-a3aa-e7f6222d24c3)
    (property "Reference" "C5" (id 0) (at 201.93 137.16 90)
      (effects (font (size 1.27 1.27)) (justify right))
    )
    (property "Value" "32.786 kHz" (id 1) (at 196.85 139.7 90)
      (effects (font (size 1.27 1.27)) (justify right))
    )
    (property "Footprint" "" (id 2) (at 203.2 132.08 0)
      (effects (font (size 1.27 1.27)) hide)
    )
    (property "Datasheet" "~" (id 3) (at 203.2 132.08 0)
      (effects (font (size 1.27 1.27)) hide)
    )
    (pin "1" (uuid 763ccee6-8ad4-40c7-863c-19013c376404))
    (pin "2" (uuid 2c8c33d2-c33a-425a-a212-889ac2dd6c6a))
  )

  (symbol (lib_id "Device:R") (at 209.55 114.3 0) (unit 1)
    (in_bom yes) (on_board yes) (fields_autoplaced)
    (uuid aa7095f7-1e33-4453-8c07-1c6d6a6cdc5a)
    (property "Reference" "R17" (id 0) (at 212.09 113.0299 0)
      (effects (font (size 1.27 1.27)) (justify left))
    )
    (property "Value" "1k" (id 1) (at 212.09 115.5699 0)
      (effects (font (size 1.27 1.27)) (justify left))
    )
    (property "Footprint" "" (id 2) (at 207.772 114.3 90)
      (effects (font (size 1.27 1.27)) hide)
    )
    (property "Datasheet" "~" (id 3) (at 209.55 114.3 0)
      (effects (font (size 1.27 1.27)) hide)
    )
    (pin "1" (uuid acd052ba-db10-4985-8f30-1d140e78dc2e))
    (pin "2" (uuid 272f584a-dcf4-4995-a7ac-673eb21e4fad))
  )

  (symbol (lib_id "Device:R") (at 203.2 114.3 0) (unit 1)
    (in_bom yes) (on_board yes) (fields_autoplaced)
    (uuid b665c52b-83d7-44fc-996d-1dc139aaa107)
    (property "Reference" "R16" (id 0) (at 205.74 113.0299 0)
      (effects (font (size 1.27 1.27)) (justify left))
    )
    (property "Value" "1k" (id 1) (at 205.74 115.5699 0)
      (effects (font (size 1.27 1.27)) (justify left))
    )
    (property "Footprint" "" (id 2) (at 201.422 114.3 90)
      (effects (font (size 1.27 1.27)) hide)
    )
    (property "Datasheet" "~" (id 3) (at 203.2 114.3 0)
      (effects (font (size 1.27 1.27)) hide)
    )
    (pin "1" (uuid c25fc1a1-4753-43f7-b116-a510fa20cb72))
    (pin "2" (uuid 88fa175c-7242-476f-9622-477a93cf1373))
  )

  (sheet_instances
    (path "/" (page "1"))
  )

  (symbol_instances
    (path "/74599e18-0957-46d2-a3aa-e7f6222d24c3"
      (reference "C6") (unit 1) (value "32.786 kHz") (footprint "")
    )
    (path "/3ac65bf7-6c71-40f5-b2e1-255a90f3bc0e"
      (reference "DS1307N+2") (unit 1) (value "DS1307N+") (footprint "Package_DIP:DIP-8_W7.62mm")
    )
    (path "/b665c52b-83d7-44fc-996d-1dc139aaa107"
      (reference "R17") (unit 1) (value "1k") (footprint "")
    )
    (path "/aa7095f7-1e33-4453-8c07-1c6d6a6cdc5a"
      (reference "R18") (unit 1) (value "1k") (footprint "")
    )
    (path "/010c2943-d622-4139-9904-f6044ff0dcaa"
      (reference "battery2") (unit 1) (value "3V") (footprint "Crystal:Crystal_SMD_SeikoEpson_MC406-4Pin_9.6x4.1mm_HandSoldering")
    )
  )
)
