Designator,Val,Package,Mid X,Mid Y,Rotation,Layer
C1,100nF,C_0805_2012Metric,131.445,-120.015,180,top
C3,10uF,C_0805_2012Metric,111.125,-76.2,180,top
C4,10uF,C_0805_2012Metric,133.985,-86.995,0,top
C5,10uF,C_0805_2012Metric,120.335,-71.755,180,top
C6,10uF,C_0805_2012Metric,118.11,-89.535,180,top
C7,100nF,C_0805_2012Metric,88.265,-69.215,180,top
C8,4.7nF,C_0805_2012Metric,95.25,-53.975,180,top
D1,LED,LED_1206_3216Metric,120.015,-117.475,90,top
D2,1N5819,D_SOD-323,110.49,-64.77,90,top
D3,Green,LED_1206_3216Metric,116.205,-76.2,180,top
D4,Red,LED_1206_3216Metric,116.205,-81.915,180,top
D6,1N5819,D_SOD-323,110.49,-71.12,90,top
D7,1N5819,D_SOD-323,126.365,-72.39,180,top
J5,XNJ,USB Micro B - XNJ,118.535,-58.4275,0,top
Q1,BC547,TO-92_Inline,122.195,-122.555,-90,top
Q4,AO3401A,SOT-23,134.62,-72.39,90,top
R1,LDR,R_LDR_4.9x4.2mm_P2.54mm_Vertical,112.395,-110.49,-90,top
R2,15k,R_0201_0603Metric,112.395,-125.095,-90,top
R3,1k,R_0201_0603Metric,120.015,-111.76,-90,top
R4,10k,R_0201_0603Metric,115.57,-64.77,-90,top
R5,10k,R_0201_0603Metric,115.57,-68.58,-90,top
R8,1k,R_0201_0603Metric,120.65,-76.2,0,top
R9,1k,R_0201_0603Metric,120.65,-81.915,0,top
R10,1k,R_0201_0603Metric,132.08,-80.645,-90,top
R12,10k,R_0201_0603Metric,130.81,-74.93,-90,top
R14,1k,R_0201_0603Metric,86.36,-79.375,-90,top
R15,1k,R_0201_0603Metric,90.17,-79.375,-90,top
SW1,SW_Push,SW_Push_1P1T_NO_6x6mm_H9.5mm,85.725,-88.265,90,top
SW2,SW_Push,SW_Push_1P1T_NO_6x6mm_H9.5mm,85.725,-100.33,90,top
U1,SHT20,DFN-6-1EP_3x3mm_P1mm_EP1.5x2.4mm,131.445,-113.7,0,top
U2,CH340C,SOIC-16_3.9x9.9mm_P1.27mm,84.455,-57.785,180,top
U3,TP4056,SOIC-8-1EP_3.9x4.9mm_P1.27mm_EP2.29x3mm,126.365,-79.375,180,top
U4,AMS1117-3.3,SOT-223-3_TabPin2,126.365,-89.535,180,top
U5,AT24C256C-SSHL-T,SOIC-8_3.9x4.9mm_P1.27mm,127.635,-104.775,0,top
Z3,10V,D_SOD-323,134.62,-76.835,180,top
